2020400144_2020400348_PRE5/TimingDiagram.vcd
$date
	Thu May 05 23:51:59 2022
$end
$version
	Icarus Verilog
$end
$timescale
	1ns
$end
$scope module FSM_Testbench $end
$var wire 1 ! z $end
$upscope $end
$scope module FSM_Testbench $end
$var reg 1 " w $end
$upscope $end
$scope module FSM_Testbench $end
$var reg 1 # rst $end
$upscope $end
$scope module FSM_Testbench $end
$var reg 1 $ clk $end
$upscope $end
$scope module FSM_Testbench $end
$scope module fsm $end
$var wire 1 $ clk $end
$var wire 1 # rst $end
$var wire 1 " w $end
$var reg 3 % nextStateReg [2:0] $end
$var reg 3 & stateReg [2:0] $end
$var reg 1 ! z $end
$upscope $end
$upscope $end
$enddefinitions $end
#0
$dumpvars
bx &
bx %
0$
1#
0"
x!
$end
#20
0!
b1 %
b0 &
1$
#30
b100 %
1"
0#
#40
0$
#60
b101 %
b100 &
1$
#80
0$
#100
b110 %
b101 &
1$
#110
b1 %
0"
#120
0$
#140
b10 %
b1 &
1$
#150
b100 %
1"
#160
0$
#180
b101 %
b100 &
1$
#190
b1 %
0"
#200
0$
#220
b10 %
b1 &
1$
#240
0$
#260
b11 %
b10 &
1$
#280
0$
#300
1!
b11 &
1$
#310
b100 %
1"
#320
0$
#340
0!
b101 %
b100 &
1$
#360
0$
#380
b110 %
b101 &
1$
#390
b1 %
0"
#400
0$
#420
b10 %
b1 &
1$
#430
b100 %
1"
#440
0$
#460
b101 %
b100 &
1$
#480
0$
#500
b110 %
b101 &
1$
#520
0$
#540
1!
b110 &
1$
#550
b1 %
0"
#560
0$
#580
0!
b10 %
b1 &
1$
#590
b100 %
1"
#600
0$
#620
b101 %
b100 &
1$
#630
b1 %
0"
#640
0$
#660
b10 %
b1 &
1$
#680
0$
#700
b11 %
b10 &
1$
#710
b100 %
1"
#720
0$
#740
b101 %
b100 &
1$
#760
0$
#780
b110 %
b101 &
1$
#790
b1 %
0"
#800
0$
#820
b10 %
b1 &
1$
#830
b100 %
1"
#840
0$
#860
b101 %
b100 &
1$
#880
0$
#900
b110 %
b101 &
1$
#920
0$
#940
1!
b110 &
1$
#950
b1 %
0"
#960
0$
#980
0!
b10 %
b1 &
1$
#990
b100 %
1"
#1000
0$
#1020
b101 %
b100 &
1$
#1030
b1 %
0"
#1040
0$
#1060
b10 %
b1 &
1$
#1080
0$
#1100
b11 %
b10 &
1$
#1110
b100 %
1"
#1120
0$
#1140
b101 %
b100 &
1$
#1160
0$
#1180
b110 %
b101 &
1$
#1190
b1 %
0"
#1200
0$
#1220
b10 %
b1 &
1$
#1240
0$
#1260
b11 %
b10 &
1$
#1270
b100 %
1"
#1280
0$
#1300
b101 %
b100 &
1$
#1310
b1 %
0"
1#
#1320
0$
#1340
b1 &
b100 %
1$
1"
0#
#1360
0$
#1380
b101 %
b100 &
1$
#1400
0$
#1420
b101 &
b1 %
1$
0"
#1440
0$
#1460
b1 &
b100 %
1$
1"
#1480
0$
#1500
b100 &
b1 %
1$
0"
#1520
0$
#1540
b10 %
b1 &
1$
#1560
0$
#1580
b10 &
b100 %
1$
1"
#1600
0$
#1620
b101 %
b100 &
1$
#1640
0$
#1660
b101 &
b1 %
1$
0"
#1680
0$
#1700
b1 &
b100 %
1$
1"
#1720
0$
#1740
b100 &
b1 %
1$
0"
#1760
0$
#1780
b1 &
b100 %
1$
1"
#1800
0$
#1820
b101 %
b100 &
1$
#1840
0$
#1860
b110 %
b101 &
1$
#1880
0$
#1900
1!
b110 &
b1 %
1$
0"
#1920
0$
#1940
0!
b1 &
b100 %
1$
1"
#1960
0$
#1980
b100 &
b1 %
1$
0"
#2000
0$
#2020
b10 %
b1 &
1$
#2040
0$
#2060
b10 &
b100 %
1$
1"
#2080
0$
#2100
b101 %
b100 &
1$
#2120
0$
#2140
b101 &
b1 %
1$
0"
#2160
0$
#2180
b1 &
b100 %
1$
1"
#2200
0$
#2220
b101 %
b100 &
1$
#2240
0$
#2260
b110 %
b101 &
1$
#2280
0$
#2300
1!
b110 &
b1 %
1$
0"
#2320
0$
#2340
0!
b1 &
b100 %
1$
1"
#2360
0$
#2380
b100 &
b1 %
1$
0"
#2400
0$
#2420
b10 %
b1 &
1$
#2440
0$
#2460
b10 &
b100 %
1$
1"
#2480
0$
#2500
b101 %
b100 &
1$
#2520
0$
#2540
b101 &
b1 %
1$
0"
#2560
0$
#2580
b1 &
b100 %
1$
1"
#2600
0$
#2620
b0 &
b1 %
1$
0"
1#
#2640
0$
#2650
b100 %
1"
0#
#2660
b101 %
b100 &
1$
#2680
0$
#2700
b110 %
b101 &
1$
#2720
0$
#2730
b1 %
0"
#2740
b10 %
b1 &
1$
#2760
0$
#2770
b100 %
1"
#2780
b101 %
b100 &
1$
#2800
0$
#2810
b1 %
0"
#2820
b10 %
b1 &
1$
#2840
0$
#2860
b11 %
b10 &
1$
#2880
0$
#2890
b100 %
1"
#2900
b101 %
b100 &
1$
#2920
0$
#2940
b110 %
b101 &
1$
#2960
0$
#2970
b1 %
0"
#2980
b10 %
b1 &
1$
#3000
0$
#3010
b100 %
1"
#3020
b101 %
b100 &
1$
#3040
0$
#3060
b110 %
b101 &
1$
#3080
0$
#3100
1!
b110 &
1$
#3120
0$
#3130
b1 %
0"
#3140
0!
b10 %
b1 &
1$
#3160
0$
#3170
b100 %
1"
#3180
b101 %
b100 &
1$
#3200
0$
#3210
b1 %
0"
#3220
b10 %
b1 &
1$
#3240
0$
#3260
b11 %
b10 &
1$
#3280
0$
#3290
b100 %
1"
#3300
b101 %
b100 &
1$
#3320
0$
#3340
b110 %
b101 &
1$
#3360
0$
#3370
b1 %
0"
#3380
b10 %
b1 &
1$
#3400
0$
#3410
b100 %
1"
#3420
b101 %
b100 &
1$
#3440
0$
#3460
b110 %
b101 &
1$
#3480
0$
#3500
1!
b110 &
1$
#3520
0$
#3540
1$
#3560
0$
#3580
1$
#3600
0$
#3610
b1 %
0"
#3620
0!
b10 %
b1 &
1$
#3640
0$
#3650
b100 %
1"
#3660
b101 %
b100 &
1$
#3680
0$
#3690
b1 %
0"
#3700
b10 %
b1 &
1$
#3720
0$
#3740
b11 %
b10 &
1$
#3760
0$
#3770
b100 %
1"
#3780
b101 %
b100 &
1$
#3800
0$
#3820
b110 %
b101 &
1$
#3840
0$
#3850
b1 %
0"
#3860
b10 %
b1 &
1$
#3880
0$
#3890
b100 %
1"
#3900
b101 %
b100 &
1$
#3920
0$
#3930
b1 %
0"
1#
#3940
b0 &
1$
#3960
0$
0#
#3980
b10 %
b1 &
1$
#4000
0$
#4020
b11 %
b10 &
1$
#4040
b100 %
0$
1"
#4060
b101 %
b100 &
1$
#4080
0$
#4100
b110 %
b101 &
1$
#4120
b1 %
0$
0"
#4140
b10 %
b1 &
1$
#4160
b100 %
0$
1"
#4180
b101 %
b100 &
1$
#4200
b1 %
0$
0"
#4220
b10 %
b1 &
1$
#4240
0$
#4260
b11 %
b10 &
1$
#4280
b100 %
0$
1"
#4300
b101 %
b100 &
1$
#4320
0$
#4340
b110 %
b101 &
1$
#4360
b1 %
0$
0"
#4380
b10 %
b1 &
1$
#4400
b100 %
0$
1"
#4420
b101 %
b100 &
1$
#4440
0$
#4460
b110 %
b101 &
1$
#4480
0$
#4500
1!
b110 &
1$
#4520
b1 %
0$
0"
#4540
0!
b10 %
b1 &
1$
#4560
b100 %
0$
1"
#4580
b101 %
b100 &
1$
#4600
b1 %
0$
0"
#4620
b10 %
b1 &
1$
#4640
0$
#4660
b11 %
b10 &
1$
#4680
b100 %
0$
1"
#4700
b101 %
b100 &
1$
#4720
0$
#4740
b110 %
b101 &
1$
#4760
b1 %
0$
0"
#4780
b10 %
b1 &
1$
#4800
b100 %
0$
1"
#4820
b101 %
b100 &
1$
#4840
0$
#4860
b110 %
b101 &
1$
#4880
0$
#4900
1!
b110 &
1$
#4920
b1 %
0$
0"
#4940
0!
b10 %
b1 &
1$
#4960
b100 %
0$
1"
#4980
b101 %
b100 &
1$
#5000
b1 %
0$
0"
#5020
b10 %
b1 &
1$
#5040
0$
#5060
b11 %
b10 &
1$
#5080
b100 %
0$
1"
#5100
b101 %
b100 &
1$
#5120
0$
#5140
b110 %
b101 &
1$
#5160
b1 %
0$
0"
#5180
b10 %
b1 &
1$
#5200
b100 %
0$
1"
#5220
b101 %
b100 &
1$
#5240
b1 %
0$
0"
1#
#5260
b0 &
1$
#5270
0#
#5280
0$
#5300
b10 %
b1 &
1$
#5310
b100 %
1"
#5320
0$
#5340
b101 %
b100 &
1$
#5360
0$
#5380
b110 %
b101 &
1$
#5390
b1 %
0"
#5400
0$
#5420
b10 %
b1 &
1$
#5430
b100 %
1"
#5440
0$
#5460
b101 %
b100 &
1$
#5470
b1 %
0"
#5480
0$
#5500
b10 %
b1 &
1$
#5520
0$
#5540
b11 %
b10 &
1$
#5550
b100 %
1"
#5560
0$
#5580
b101 %
b100 &
1$
#5600
0$
#5620
b110 %
b101 &
1$
#5630
b1 %
0"
#5640
0$
#5660
b10 %
b1 &
1$
#5670
b100 %
1"
#5680
0$
#5700
b101 %
b100 &
1$
#5710
b1 %
0"
#5720
0$
#5740
b10 %
b1 &
1$
#5750
b100 %
1"
#5760
0$
#5780
b101 %
b100 &
1$
#5800
0$
#5820
b110 %
b101 &
1$
#5830
b1 %
0"
#5840
0$
#5860
b10 %
b1 &
1$
#5870
b100 %
1"
#5880
0$
#5900
b101 %
b100 &
1$
#5910
b1 %
0"
#5920
0$
#5940
b10 %
b1 &
1$
#5960
0$
#5980
b11 %
b10 &
1$
#5990
b100 %
1"
#6000
0$
#6020
b101 %
b100 &
1$
#6040
0$
#6060
b110 %
b101 &
1$
#6070
b1 %
0"
#6080
0$
#6100
b10 %
b1 &
1$
#6110
b100 %
1"
#6120
0$
#6140
b101 %
b100 &
1$
#6160
0$
#6180
b110 %
b101 &
1$
#6200
0$
#6220
1!
b110 &
1$
#6230
b1 %
0"
#6240
0$
#6260
0!
b10 %
b1 &
1$
#6270
b100 %
1"
#6280
0$
#6300
b101 %
b100 &
1$
#6310
b1 %
0"
#6320
0$
#6340
b10 %
b1 &
1$
#6360
0$
#6380
b11 %
b10 &
1$
#6390
b100 %
1"
#6400
0$
#6420
b101 %
b100 &
1$
#6440
0$
#6460
b110 %
b101 &
1$
#6470
b1 %
0"
#6480
0$
#6500
b10 %
b1 &
1$
#6510
b100 %
1"
#6520
0$
#6540
b101 %
b100 &
1$
